user_management;Listar Usuários;Realiza a listagem de todos os usuários.;user_list
user_management;Visualizar Usuário;Realiza a visualização de um usuário.;user_show
user_management;Criar Usuário;Realiza a criação de um novo usuário.;user_create
user_management;Editar Usuário;Realiza a edição de um usuário.;user_edit
user_management;Excluir Usuário;Realiza a exclusão de um usuário.;user_delete
user_management;Bloquear/Desbloquear Usuário;Bloqueia ou desbloqueia um usuário.;user_block_unlock
user_management;Habilitar/Desabilitar Usuário;Habilita ou desabilita um usuário.;user_emabled_disabled
user_management;Alterar Permissões;Alterar permissões do usuário.;user_change_permission
